%YAML 1.1
%TAG !u! tag:unity3d.com,2011:
--- !u!78 &1
TagManager:
  serializedVersion: 2
  tags:
  - Expo1
  - Expo2
  - Expo3
  - ParteLvl1
  - ParteLvl2
  - ParteLvl3
  - recuerdo
  layers:
  - Default
  - TransparentFX
  - Ignore Raycast
  - 
  - Water
  - UI
  - Expo1
  - ParteLvl1
  - ParteLvl2
  - ParteLvl3
  - Expo2
  - Expo3
  - 
  - 
  - 
  - 
  - 
  - 
  - 
  - 
  - 
  - 
  - 
  - 
  - 
  - 
  - 
  - 
  - 
  - 
  - 
  - 
  m_SortingLayers:
  - name: Default
    uniqueID: 0
    locked: 0
